{
    "expand": "renderedFields,names,schema,operations,editmeta,changelog,versionedRepresentations",
    "id": "10000",
    "self": "https://example.com/rest/api/2/issue/10000",
    "key": "ISSUE-1",
    "fields": {
      "issuetype": {
        "self": "https://example.com/rest/api/2/issuetype/10101",
        "id": "10101",
        "description": "A task that needs to be done.",
        "iconUrl": "https://example.com/secure/viewavatar?size=xsmall&avatarId=10318&avatarType=issuetype",
        "name": "Task",
        "subtask": false,
        "avatarId": 10318
      },
      "timespent": null,
      "project": {
        "self": "https://example.com/rest/api/2/project/10000",
        "id": "10000",
        "key": "DEV",
        "name": "DEV",
        "avatarUrls": {
          "48x48": "https://example.com/secure/projectavatar?avatarId=10324",
          "24x24": "https://example.com/secure/projectavatar?size=small&avatarId=10324",
          "16x16": "https://example.com/secure/projectavatar?size=xsmall&avatarId=10324",
          "32x32": "https://example.com/secure/projectavatar?size=medium&avatarId=10324"
        }
      },
      "fixVersions": [],
      "aggregatetimespent": null,
      "customfield_10112": null,
      "resolution": null,
      "customfield_10113": null,
      "customfield_10114": null,
      "customfield_10104": [],
      "customfield_10105": null,
      "customfield_10106": null,
      "customfield_10107": null,
      "customfield_10108": "0|i0000v:",
      "customfield_10031": [
        "API",
        "Mobile"
      ],
      "resolutiondate": null,
      "workratio": -1,
      "lastViewed": null,
      "watches": {
        "self": "https://example.com/rest/api/2/issue/SAN-99/watchers",
        "watchCount": 1,
        "isWatching": false
      },
      "created": "2017-07-18T19:34:53.873+1000",
      "customfield_10100": null,
      "priority": {
        "self": "https://example.com/rest/api/2/priority/3",
        "iconUrl": "https://example.com/images/icons/priorities/medium.svg",
        "name": "Medium",
        "id": "3"
      },
      "customfield_10101": null,
      "customfield_10102": null,
      "labels": [],
      "customfield_10103": null,
      "timeestimate": null,
      "aggregatetimeoriginalestimate": null,
      "versions": [],
      "issuelinks": [],
      "assignee": null,
      "updated": "2017-07-21T01:03:56.458+1000",
      "status": {
        "self": "https://example.com/rest/api/2/status/10000",
        "description": "",
        "iconUrl": "https://example.com/",
        "name": "To Do",
        "id": "10000",
        "statusCategory": {
          "self": "https://example.com/rest/api/2/statuscategory/2",
          "id": 2,
          "key": "new",
          "colorName": "blue-gray",
          "name": "To Do"
        }
      },
      "components": [],
      "timeoriginalestimate": null,
      "description": null,
      "timetracking": {},
      "customfield_10006": null,
      "customfield_10007": null,
      "aggregatetimeestimate": null,
      "attachment": [],
      "summary": "Test assignee",
      "creator": {
        "self": "https://example.com/rest/api/2/user?username=test",
        "name": "test",
        "key": "test",
        "emailAddress": "test@mail.com",
        "avatarUrls": {
          "48x48": "https://secure.gravatar.com/avatar/bf571c2f3a15c0f5bf577b6345bf7570?d=mm&s=48",
          "24x24": "https://secure.gravatar.com/avatar/bf571c2f3a15c0f5bf577b6345bf7570?d=mm&s=24",
          "16x16": "https://secure.gravatar.com/avatar/bf571c2f3a15c0f5bf577b6345bf7570?d=mm&s=16",
          "32x32": "https://secure.gravatar.com/avatar/bf571c2f3a15c0f5bf577b6345bf7570?d=mm&s=32"
        },
        "displayName": "Atlassian OnDemand  [Administrator]",
        "active": true,
        "timeZone": "Australia/Sydney"
      },
      "subtasks": [],
      "reporter": {
        "self": "https://example.com/rest/api/2/user?username=test",
        "name": "test",
        "key": "test",
        "emailAddress": "test@mail.com",
        "avatarUrls": {
          "48x48": "https://secure.gravatar.com/avatar/bf571c2f3a15c0f5bf577b6345bf7570?d=mm&s=48",
          "24x24": "https://secure.gravatar.com/avatar/bf571c2f3a15c0f5bf577b6345bf7570?d=mm&s=24",
          "16x16": "https://secure.gravatar.com/avatar/bf571c2f3a15c0f5bf577b6345bf7570?d=mm&s=16",
          "32x32": "https://secure.gravatar.com/avatar/bf571c2f3a15c0f5bf577b6345bf7570?d=mm&s=32"
        },
        "displayName": "Atlassian OnDemand  [Administrator]",
        "active": true,
        "timeZone": "Australia/Sydney"
      },
      "customfield_10120": null,
      "aggregateprogress": {
        "progress": 0,
        "total": 0
      },
      "customfield_10000": "{}",
      "customfield_10001": null,
      "customfield_10002": null,
      "customfield_10115": null,
      "customfield_10116": null,
      "customfield_10117": null,
      "environment": null,
      "customfield_10118": null,
      "customfield_10119": null,
      "duedate": null,
      "progress": {
        "progress": 0,
        "total": 0
      },
      "votes": {
        "self": "https://example.com/rest/api/2/issue/SAN-99/votes",
        "votes": 0,
        "hasVoted": false
      },
      "comment": {
        "comments": [
          {
            "self": "https://example.com/rest/api/2/issue/10000/comment/10004",
            "id": "10004",
            "author": {
              "self": "https://example.com/rest/api/2/user?username=test",
              "name": "test",
              "key": "test",
              "emailAddress": "test@mail.com",
              "avatarUrls": {
                "48x48": "https://secure.gravatar.com/avatar/bf571c2f3a15c0f5bf577b6345bf7570?d=mm&s=48",
                "24x24": "https://secure.gravatar.com/avatar/bf571c2f3a15c0f5bf577b6345bf7570?d=mm&s=24",
                "16x16": "https://secure.gravatar.com/avatar/bf571c2f3a15c0f5bf577b6345bf7570?d=mm&s=16",
                "32x32": "https://secure.gravatar.com/avatar/bf571c2f3a15c0f5bf577b6345bf7570?d=mm&s=32"
              },
              "displayName": "Atlassian OnDemand  [Administrator]",
              "active": true,
              "timeZone": "Australia/Sydney"
            },
            "body": "jjjjj",
            "updateAuthor": {
              "self": "https://example.com/rest/api/2/user?username=test",
              "name": "test",
              "key": "test",
              "emailAddress": "test@mail.com",
              "avatarUrls": {
                "48x48": "https://secure.gravatar.com/avatar/bf571c2f3a15c0f5bf577b6345bf7570?d=mm&s=48",
                "24x24": "https://secure.gravatar.com/avatar/bf571c2f3a15c0f5bf577b6345bf7570?d=mm&s=24",
                "16x16": "https://secure.gravatar.com/avatar/bf571c2f3a15c0f5bf577b6345bf7570?d=mm&s=16",
                "32x32": "https://secure.gravatar.com/avatar/bf571c2f3a15c0f5bf577b6345bf7570?d=mm&s=32"
              },
              "displayName": "Atlassian OnDemand  [Administrator]",
              "active": true,
              "timeZone": "Australia/Sydney"
            },
            "created": "2017-07-21T01:03:56.449+1000",
            "updated": "2017-07-21T01:03:56.449+1000"
          }
        ],
        "maxResults": 1,
        "total": 1,
        "startAt": 0
      },
      "worklog": {
        "startAt": 0,
        "maxResults": 20,
        "total": 0,
        "worklogs": []
      }
    }
  }